Get the set of available tasks — dr_frost_tasks • tidydrfrost
…
tibble::as_tibble(dr_frost_tasks())
#> # A tibble: 30 × 4
#>    topic                       subtopic              task_name           descr…¹
#>    <chr>                       <chr>                 <chr>               <chr>  
#>  1 Algebra                     Sequences             continue_sequence   Contin…
#>  2 Algebra                     Sequences             later_terms         Find t…
#>  3 Algebra                     Solving Equations     simple_substitution Substi…
#>  4 Algebra                     Solving Equations     solve_one_step      Solve …
#>  5 Data Handling & Probability Averages and Range    mean                Calcul…
#>  6 Data Handling & Probability Data Representation   pictograms          Interp…
#>  7 Data Handling & Probability Data Representation   bar_charts          Bar Ch…
#>  8 Data Handling & Probability Data Representation   bank_statements     Comple…
#>  9 Data Handling & Probability Data Representation   pie_charts          Pie Ch…
#> 10 Number                      Arithmetic Operations addition_subtracti… Add an…
#> # … with 20 more rows, and abbreviated variable name ¹​description
…
